<svg width="34" height="34" viewBox="0 0 34 34" fill="none" xmlns="http://www.w3.org/2000/svg">
<path fill-rule="evenodd" clip-rule="evenodd" d="M15.2835 4.54846C15.9187 3.02136 18.082 3.02136 18.7171 4.54846L21.6666 11.6399L29.3224 12.2536C30.971 12.3858 31.6395 14.4432 30.3835 15.5192L24.5506 20.5157L26.3326 27.9864C26.7164 29.5952 24.9662 30.8668 23.5548 30.0047L17.0003 26.0012L10.4459 30.0047C9.03447 30.8668 7.28433 29.5952 7.66808 27.9864L9.45013 20.5157L3.61722 15.5192C2.36115 14.4432 3.02963 12.3858 4.67826 12.2536L12.3341 11.6399L15.2835 4.54846Z" fill="white"/>
</svg>
